<svg xmlns="http://www.w3.org/2000/svg" xmlns:xlink="http://www.w3.org/1999/xlink" width="719.997" height="338.928" viewBox="0 0 719.997 338.928">
  <defs>
    <linearGradient id="linear-gradient" x1="0.106" y1="0.039" x2="0.847" gradientUnits="objectBoundingBox">
      <stop offset="0" stop-color="#a053f2"/>
      <stop offset="1" stop-color="#4b1293"/>
    </linearGradient>
  </defs>
  <path id="Intersección_63" data-name="Intersección 63" d="M0,0H720V194.2L.78,338.928Z" fill="url(#linear-gradient)"/>
</svg>
