<svg xmlns="http://www.w3.org/2000/svg" width="83.971" height="83.971" viewBox="0 0 83.971 83.971">
  <g id="Grupo_1761" data-name="Grupo 1761" transform="translate(-76 -1604.612)">
    <g id="compartir-post" transform="translate(76 1604.612)">
      <path id="Trazado_8879" data-name="Trazado 8879" d="M0,63.417V5.069A5.069,5.069,0,0,1,5.069,0H78.9a5.069,5.069,0,0,1,5.069,5.069V63.417Z" transform="translate(0 0)" fill="#eaf6ff"/>
      <path id="Trazado_8880" data-name="Trazado 8880" d="M460.327,63.417V5.069A5.069,5.069,0,0,0,455.259,0H450.19a5.069,5.069,0,0,1,5.069,5.069V63.417Z" transform="translate(-376.356 0)" fill="#d8ecfe"/>
      <path id="Trazado_8881" data-name="Trazado 8881" d="M5.069,407.23H78.9a5.069,5.069,0,0,0,5.069-5.069V386.676H0v15.485A5.069,5.069,0,0,0,5.069,407.23Z" transform="translate(0 -323.259)" fill="#3f6e90"/>
      <path id="Trazado_8882" data-name="Trazado 8882" d="M455.259,386.676v15.485a5.069,5.069,0,0,1-5.069,5.069h5.069a5.069,5.069,0,0,0,5.069-5.069V386.676Z" transform="translate(-376.356 -323.259)" fill="#355f7f"/>
      <g id="Grupo_1703" data-name="Grupo 1703" transform="translate(18.905 5.069)">
        <path id="Trazado_8883" data-name="Trazado 8883" d="M140.843,230.123V223.04h-4.98v7.083a3.379,3.379,0,0,1-2.68,3.306l-3.74.255-6.132,1.3a10.137,10.137,0,0,0-8.039,9.918v4.978h46.16V244.9a10.137,10.137,0,0,0-8.039-9.918l-6.132-1.3-3.74-.255A3.379,3.379,0,0,1,140.843,230.123Z" transform="translate(-115.273 -191.529)" fill="#f58a97"/>
        <g id="Grupo_1695" data-name="Grupo 1695" transform="translate(29.035 42.155)">
          <path id="Trazado_8884" data-name="Trazado 8884" d="M292.308,290.92l4.018.85a10.137,10.137,0,0,1,8.039,9.918v2.444h5.069v-4.978a10.137,10.137,0,0,0-8.039-9.918l-6.132-1.3Z" transform="translate(-292.308 -287.938)" fill="#f07281"/>
        </g>
        <path id="Trazado_8885" data-name="Trazado 8885" d="M201.676,233.684a10.672,10.672,0,0,0,17.819,0l-3.74-.255a3.379,3.379,0,0,1-2.68-3.306V223.04h-7.514v7.083a3.379,3.379,0,0,1-2.68,3.306Z" transform="translate(-187.505 -191.529)" fill="#ffcebf"/>
        <path id="Trazado_8886" data-name="Trazado 8886" d="M258.41,235.963l3.319.7a10.737,10.737,0,0,0,2.955-2.982l-1.205-.255a3.379,3.379,0,0,1-2.68-3.306V223.04H255.73v9.617A3.379,3.379,0,0,0,258.41,235.963Z" transform="translate(-232.694 -191.529)" fill="#ffb09e"/>
        <g id="Grupo_1702" data-name="Grupo 1702" transform="translate(5.635)">
          <g id="Grupo_1701" data-name="Grupo 1701">
            <g id="Grupo_1700" data-name="Grupo 1700">
              <path id="Trazado_8887" data-name="Trazado 8887" d="M203.4,51.442H177.722V35.975a5.069,5.069,0,0,1,5.069-5.069h15.538a5.069,5.069,0,0,1,5.069,5.069V51.442Z" transform="translate(-173.115 -30.906)" fill="#e19974"/>
              <path id="Trazado_8888" data-name="Trazado 8888" d="M277.535,30.905h-5.069a5.069,5.069,0,0,1,5.069,5.069V51.441H282.6V35.974A5.069,5.069,0,0,0,277.535,30.905Z" transform="translate(-252.321 -30.905)" fill="#dc8758"/>
              <path id="Trazado_8889" data-name="Trazado 8889" d="M203.4,95.694a13.463,13.463,0,0,1-7.941-6.228.58.58,0,0,0-.885-.149,25.584,25.584,0,0,1-4.6,3.219,26.317,26.317,0,0,1-12.245,3.158v8.227a12.908,12.908,0,0,0,7.814,11.877c1.543.66,5.024.371,5.024.371,1.773,0,3.461.293,5-.36a12.907,12.907,0,0,0,7.841-11.889V95.694Z" transform="translate(-173.114 -79.618)" fill="#ffcebf"/>
              <path id="Trazado_8890" data-name="Trazado 8890" d="M238.5,93.222a13.538,13.538,0,0,1-3.214-3.77.576.576,0,0,0-.881-.142,25.793,25.793,0,0,1-2.794,2.128,13.416,13.416,0,0,0,4.251,3.349,4.14,4.14,0,0,1,2.3,3.7v5.429a11.771,11.771,0,0,1-2.948,8.227,12.133,12.133,0,0,1-9.845,3.65,13,13,0,0,0,3.916.978c.385.034.755.048,1.108.048a12.87,12.87,0,0,0,12.838-12.9V95.687A13.465,13.465,0,0,1,238.5,93.222Z" transform="translate(-212.945 -79.61)" fill="#ffb09e"/>
              <g id="Grupo_1698" data-name="Grupo 1698" transform="translate(9.984 18.56)">
                <g id="Grupo_1696" data-name="Grupo 1696">
                  <path id="Trazado_8891" data-name="Trazado 8891" d="M211.773,149.1a1.267,1.267,0,0,1-1.267-1.267v-2.49a1.267,1.267,0,1,1,2.534,0v2.49A1.267,1.267,0,0,1,211.773,149.1Z" transform="translate(-210.506 -144.074)" fill="#3f6e90"/>
                </g>
                <g id="Grupo_1697" data-name="Grupo 1697" transform="translate(12.388)">
                  <path id="Trazado_8892" data-name="Trazado 8892" d="M287.307,149.1a1.267,1.267,0,0,1-1.267-1.267v-2.49a1.267,1.267,0,1,1,2.534,0v2.49A1.267,1.267,0,0,1,287.307,149.1Z" transform="translate(-286.04 -144.074)" fill="#3f6e90"/>
                </g>
              </g>
              <g id="Grupo_1699" data-name="Grupo 1699" transform="translate(13.7 29.607)">
                <path id="Trazado_8893" data-name="Trazado 8893" d="M236.909,214.6h-.067a6.419,6.419,0,0,1-3.022-.8,1.267,1.267,0,0,1,1.223-2.219,3.856,3.856,0,0,0,3.732,0A1.267,1.267,0,1,1,240,213.807,6.416,6.416,0,0,1,236.909,214.6Z" transform="translate(-233.163 -211.43)" fill="#ffb09e"/>
              </g>
              <path id="Trazado_8894" data-name="Trazado 8894" d="M335.845,135.022h-1.569v-6.091h1.569a3.038,3.038,0,0,1,3.038,3.038v.015A3.038,3.038,0,0,1,335.845,135.022Z" transform="translate(-303.993 -112.854)" fill="#ffcebf"/>
              <path id="Trazado_8895" data-name="Trazado 8895" d="M152.67,135.022h1.569v-6.091H152.67a3.038,3.038,0,0,0-3.038,3.038v.015A3.038,3.038,0,0,0,152.67,135.022Z" transform="translate(-149.632 -112.854)" fill="#ffb09e"/>
            </g>
          </g>
        </g>
      </g>
      <g id="Grupo_1706" data-name="Grupo 1706" transform="translate(10.686 68.661)">
        <path id="Trazado_8896" data-name="Trazado 8896" d="M228.395,431.192a.537.537,0,0,0,.384,0,12.4,12.4,0,0,0,4.556-3.518A3.439,3.439,0,0,0,233,423.3a2.882,2.882,0,0,0-4.045-.162.539.539,0,0,1-.736,0,2.881,2.881,0,0,0-4.045.162,3.439,3.439,0,0,0-.335,4.372,11.81,11.81,0,0,0,4.556,3.52Z" transform="translate(-197.287 -421.772)" fill="#f58a97"/>
        <path id="Trazado_8897" data-name="Trazado 8897" d="M247.418,423.3a2.882,2.882,0,0,0-4.045-.162.539.539,0,0,1-.736,0,2.8,2.8,0,0,0-2.169-.738,5.082,5.082,0,0,1,1.554,1.958,4.422,4.422,0,0,1,.4,2.573,4.486,4.486,0,0,1-1.964,2.887,10.747,10.747,0,0,0,2.357,1.373.537.537,0,0,0,.384,0,12.4,12.4,0,0,0,4.556-3.518A3.439,3.439,0,0,0,247.418,423.3Z" transform="translate(-211.705 -421.774)" fill="#f07281"/>
        <g id="Grupo_1705" data-name="Grupo 1705">
          <path id="Trazado_8898" data-name="Trazado 8898" d="M77.771,426.53H74.182a.639.639,0,0,0-.491.247l-1.389,1.69a.611.611,0,0,1-.982,0l-1.389-1.69a.639.639,0,0,0-.491-.247H65.85a.781.781,0,0,1-.695-.845v-6.193a.781.781,0,0,1,.695-.845H77.771a.781.781,0,0,1,.695.845v6.193A.781.781,0,0,1,77.771,426.53Z" transform="translate(-65.155 -418.648)" fill="#fddf80"/>
          <path id="Trazado_8899" data-name="Trazado 8899" d="M99.606,418.648H94.538a.781.781,0,0,1,.695.845v2.186a4.953,4.953,0,0,1-3.919,4.843l-.04.009a.639.639,0,0,1,.491.247l1.389,1.69a.613.613,0,0,0,.982,0l1.389-1.69a.639.639,0,0,1,.491-.247h3.589a.781.781,0,0,0,.695-.845v-6.193A.781.781,0,0,0,99.606,418.648Z" transform="translate(-86.99 -418.648)" fill="#f9d070"/>
          <path id="Trazado_8900" data-name="Trazado 8900" d="M397.843,428.631l-3.392-1.845a.67.67,0,0,0-.641,0l-3.392,1.845a.676.676,0,0,1-1-.6v-8.7a.679.679,0,0,1,.676-.683h8.066a.679.679,0,0,1,.676.683v8.7A.676.676,0,0,1,397.843,428.631Z" transform="translate(-336.24 -418.647)" fill="#aee49e"/>
          <g id="Grupo_1704" data-name="Grupo 1704" transform="translate(56.855 0)">
            <path id="Trazado_8901" data-name="Trazado 8901" d="M416.888,418.648h-5.069a.679.679,0,0,1,.676.683v7.478l.04-.021a.67.67,0,0,1,.641,0l3.392,1.845a.676.676,0,0,0,1-.6v-8.7A.68.68,0,0,0,416.888,418.648Z" transform="translate(-411.819 -418.648)" fill="#8bd8a5"/>
          </g>
        </g>
      </g>
    </g>
  </g>
</svg>
