<svg id="etiquetas" xmlns="http://www.w3.org/2000/svg" width="76.058" height="74.941" viewBox="0 0 76.058 74.941">
  <path id="Trazado_8917" data-name="Trazado 8917" d="M68.855,4.974a391.677,391.677,0,0,0-61.65,0,6.4,6.4,0,0,0-5.851,5.7,230.759,230.759,0,0,0,0,49.9,6.4,6.4,0,0,0,5.851,5.7,391.679,391.679,0,0,0,61.65,0,6.4,6.4,0,0,0,5.851-5.7,230.759,230.759,0,0,0,0-49.9,6.4,6.4,0,0,0-5.851-5.7Z" transform="translate(-0.001 -3.759)" fill="#dfeaef"/>
  <g id="Grupo_1712" data-name="Grupo 1712" transform="translate(51.766 40.147)">
    <path id="Trazado_8918" data-name="Trazado 8918" d="M367.227,280.408l-6.274-5.47a3.748,3.748,0,0,0-4.925,0l-6.274,5.47a3.748,3.748,0,0,0-1.284,2.824v19.537a3.747,3.747,0,0,0,3.747,3.746h12.547a3.747,3.747,0,0,0,3.747-3.746V283.232A3.747,3.747,0,0,0,367.227,280.408Zm-8.736,2.216a2.6,2.6,0,1,1,2.6-2.6A2.6,2.6,0,0,1,358.491,282.624Z" transform="translate(-348.47 -274.016)" fill="#6bbef6"/>
    <g id="Grupo_1711" data-name="Grupo 1711" transform="translate(6.755 11.969)">
      <path id="Trazado_8919" data-name="Trazado 8919" d="M395.093,371.366a1.148,1.148,0,0,1-1.148-1.148V355.736a1.148,1.148,0,0,1,2.3,0v14.482A1.148,1.148,0,0,1,395.093,371.366Z" transform="translate(-393.945 -354.588)" fill="#528ecb"/>
      <path id="Trazado_8920" data-name="Trazado 8920" d="M423.6,392.51a1.148,1.148,0,0,1-1.148-1.148V380.569a1.148,1.148,0,1,1,2.3,0v10.793A1.148,1.148,0,0,1,423.6,392.51Z" transform="translate(-418.221 -375.732)" fill="#528ecb"/>
    </g>
  </g>
  <g id="Grupo_1714" data-name="Grupo 1714" transform="translate(4.251 42.442)">
    <path id="Trazado_8921" data-name="Trazado 8921" d="M47.373,295.86,41.1,290.39a3.748,3.748,0,0,0-4.925,0L29.9,295.86a3.748,3.748,0,0,0-1.285,2.824v19.537a3.747,3.747,0,0,0,3.747,3.746H44.91a3.747,3.747,0,0,0,3.747-3.746V298.684A3.747,3.747,0,0,0,47.373,295.86Zm-8.736,2.216a2.6,2.6,0,1,1,2.6-2.6A2.6,2.6,0,0,1,38.637,298.076Z" transform="translate(-28.616 -289.468)" fill="#dd636e"/>
    <g id="Grupo_1713" data-name="Grupo 1713" transform="translate(6.756 11.969)">
      <path id="Trazado_8922" data-name="Trazado 8922" d="M75.24,386.819a1.148,1.148,0,0,1-1.148-1.148V371.189a1.148,1.148,0,0,1,2.3,0v14.482A1.148,1.148,0,0,1,75.24,386.819Z" transform="translate(-74.092 -370.041)" fill="#c63d4f"/>
      <path id="Trazado_8923" data-name="Trazado 8923" d="M103.751,407.963a1.148,1.148,0,0,1-1.148-1.148V396.022a1.148,1.148,0,0,1,2.3,0v10.793A1.148,1.148,0,0,1,103.751,407.963Z" transform="translate(-98.368 -391.185)" fill="#c63d4f"/>
    </g>
  </g>
  <g id="Grupo_1716" data-name="Grupo 1716" transform="translate(28.008 34.809)">
    <path id="Trazado_8924" data-name="Trazado 8924" d="M207.3,244.474,201.026,239a3.748,3.748,0,0,0-4.925,0l-6.274,5.47a3.748,3.748,0,0,0-1.285,2.824v19.537a3.747,3.747,0,0,0,3.747,3.746h12.547a3.747,3.747,0,0,0,3.747-3.746V247.3A3.747,3.747,0,0,0,207.3,244.474Zm-8.736,2.216a2.6,2.6,0,1,1,2.6-2.6A2.6,2.6,0,0,1,198.564,246.69Z" transform="translate(-188.543 -238.082)" fill="#f4dd45"/>
    <g id="Grupo_1715" data-name="Grupo 1715" transform="translate(6.755 11.969)">
      <path id="Trazado_8925" data-name="Trazado 8925" d="M235.166,335.432a1.148,1.148,0,0,1-1.148-1.148V319.8a1.148,1.148,0,1,1,2.3,0v14.482A1.148,1.148,0,0,1,235.166,335.432Z" transform="translate(-234.018 -318.655)" fill="#eab14d"/>
      <path id="Trazado_8926" data-name="Trazado 8926" d="M263.677,356.576a1.148,1.148,0,0,1-1.148-1.148V344.635a1.148,1.148,0,1,1,2.3,0v10.793A1.147,1.147,0,0,1,263.677,356.576Z" transform="translate(-258.294 -339.798)" fill="#eab14d"/>
    </g>
  </g>
  <g id="Grupo_1717" data-name="Grupo 1717" transform="translate(13.124 10.569)">
    <path id="Trazado_8927" data-name="Trazado 8927" d="M89.5,113.409a1.148,1.148,0,0,1-1.148-1.148V76.052a1.148,1.148,0,0,1,2.3,0v36.21A1.148,1.148,0,0,1,89.5,113.409Z" transform="translate(-88.348 -74.904)" fill="#b4d0d5"/>
    <path id="Trazado_8928" data-name="Trazado 8928" d="M249.422,105.63a1.148,1.148,0,0,1-1.148-1.148V76.052a1.148,1.148,0,1,1,2.3,0v28.431A1.148,1.148,0,0,1,249.422,105.63Z" transform="translate(-224.517 -74.904)" fill="#b4d0d5"/>
    <path id="Trazado_8929" data-name="Trazado 8929" d="M409.347,110.86a1.148,1.148,0,0,1-1.148-1.148V76.052a1.148,1.148,0,0,1,2.3,0v33.661A1.148,1.148,0,0,1,409.347,110.86Z" transform="translate(-360.685 -74.904)" fill="#b4d0d5"/>
  </g>
  <path id="Trazado_8930" data-name="Trazado 8930" d="M78.467,20.343l-.031,0a426.019,426.019,0,0,0-74.981,0l-.031,0q.319-4.834.845-9.667a6.4,6.4,0,0,1,5.851-5.7,391.876,391.876,0,0,1,61.652,0,6.4,6.4,0,0,1,5.851,5.7q.525,4.832.845,9.666Z" transform="translate(-2.916 -3.76)" fill="#617881"/>
  <circle id="Elipse_294" data-name="Elipse 294" cx="3.59" cy="3.59" r="3.59" transform="translate(6.094 4.537)" fill="#dd636e"/>
  <circle id="Elipse_295" data-name="Elipse 295" cx="3.59" cy="3.59" r="3.59" transform="translate(27.633 4.537)" fill="#86f1a7"/>
  <circle id="Elipse_296" data-name="Elipse 296" cx="3.59" cy="3.59" r="3.59" transform="translate(16.863 4.537)" fill="#f4dd45"/>
</svg>
