<svg id="galeria" xmlns="http://www.w3.org/2000/svg" xmlns:xlink="http://www.w3.org/1999/xlink" width="118.568" height="95" viewBox="0 0 118.568 95">
  <defs>
    <linearGradient id="linear-gradient" x1="0.463" y1="0.553" x2="0.483" y2="1.796" gradientUnits="objectBoundingBox">
      <stop offset="0" stop-color="#97aaaa"/>
      <stop offset="1" stop-color="#e8efee"/>
    </linearGradient>
    <linearGradient id="linear-gradient-2" x1="0.453" y1="0.258" x2="0.481" y2="0.099" gradientUnits="objectBoundingBox">
      <stop offset="0" stop-color="#363f3e" stop-opacity="0"/>
      <stop offset="1" stop-color="#303033"/>
    </linearGradient>
    <linearGradient id="linear-gradient-3" x1="0.76" y1="0.077" x2="0.871" y2="-0.077" xlink:href="#linear-gradient"/>
    <linearGradient id="linear-gradient-4" x1="0.458" y1="0.994" x2="0.458" gradientUnits="objectBoundingBox">
      <stop offset="0" stop-color="#fff"/>
      <stop offset="1" stop-color="#e8efee"/>
    </linearGradient>
    <linearGradient id="linear-gradient-5" x1="0.451" y1="0.703" x2="0.451" y2="-0.15" gradientUnits="objectBoundingBox">
      <stop offset="0" stop-color="#3fa9f5"/>
      <stop offset="1" stop-color="#0071e2"/>
    </linearGradient>
    <linearGradient id="linear-gradient-6" x1="0.458" y1="-5.846" x2="0.458" y2="-6.533" gradientUnits="objectBoundingBox">
      <stop offset="0" stop-color="#c2cece" stop-opacity="0"/>
      <stop offset="0.179" stop-color="#afbcbc" stop-opacity="0.18"/>
      <stop offset="1" stop-color="#5b6a6a"/>
    </linearGradient>
    <linearGradient id="linear-gradient-7" x1="0.438" y1="-0.393" x2="0.091" y2="0.352" gradientUnits="objectBoundingBox">
      <stop offset="0" stop-color="#008bf2" stop-opacity="0"/>
      <stop offset="1" stop-color="#0046e2"/>
    </linearGradient>
    <linearGradient id="linear-gradient-8" x1="0.424" y1="0.207" x2="0.424" y2="-0.973" gradientUnits="objectBoundingBox">
      <stop offset="0" stop-color="#c2d600"/>
      <stop offset="1" stop-color="#7bd101"/>
    </linearGradient>
    <linearGradient id="linear-gradient-9" x1="0.543" y1="-0.817" x2="-0.12" y2="0.098" gradientUnits="objectBoundingBox">
      <stop offset="0" stop-color="#1aceb8" stop-opacity="0"/>
      <stop offset="1" stop-color="#04959c"/>
    </linearGradient>
    <linearGradient id="linear-gradient-10" x1="0.162" y1="0.202" x2="0.162" y2="-0.738" xlink:href="#linear-gradient-4"/>
    <linearGradient id="linear-gradient-11" x1="0.13" y1="-0.646" x2="-0.235" y2="0.325" xlink:href="#linear-gradient-6"/>
    <linearGradient id="linear-gradient-12" x1="0.44" y1="0.571" x2="0.44" y2="-0.608" xlink:href="#linear-gradient-8"/>
    <linearGradient id="linear-gradient-13" x1="0.307" y1="2.02" x2="0.307" y2="1.261" xlink:href="#linear-gradient-4"/>
    <linearGradient id="linear-gradient-14" x1="-0.081" y1="-1.114" x2="0.287" y2="-1.521" xlink:href="#linear-gradient-4"/>
    <linearGradient id="linear-gradient-15" x1="0.88" y1="0.379" x2="-0.291" y2="1.151" xlink:href="#linear-gradient-7"/>
    <linearGradient id="linear-gradient-16" x1="0.235" y1="2.571" x2="0.235" y2="0.903" gradientUnits="objectBoundingBox">
      <stop offset="0" stop-color="#ffcf95"/>
      <stop offset="0.427" stop-color="#ffc954"/>
      <stop offset="1" stop-color="#ffc200"/>
    </linearGradient>
  </defs>
  <path id="Trazado_8844" data-name="Trazado 8844" d="M105.605,55.434,118.459,120.5a5.642,5.642,0,0,1-4.44,6.626L19.588,145.778a5.642,5.642,0,0,1-6.626-4.44L.108,76.277a5.642,5.642,0,0,1,4.44-6.626L98.979,50.994A5.642,5.642,0,0,1,105.605,55.434Z" transform="translate(0 -50.886)" fill="url(#linear-gradient)"/>
  <path id="Trazado_8845" data-name="Trazado 8845" d="M154.217,142.209,59.786,160.864a5.642,5.642,0,0,1-6.627-4.439l-.847-4.288a6.008,6.008,0,0,0,2.963.159L145.8,70.519l12.856,65.063A5.646,5.646,0,0,1,154.217,142.209Z" transform="translate(-40.198 -65.972)" fill="url(#linear-gradient-2)"/>
  <path id="Trazado_8846" data-name="Trazado 8846" d="M136.806,108.624v66.32a5.642,5.642,0,0,1-5.64,5.64H34.909a5.642,5.642,0,0,1-5.64-5.64v-66.32a5.642,5.642,0,0,1,5.64-5.64h96.257A5.642,5.642,0,0,1,136.806,108.624Z" transform="translate(-22.491 -90.919)" fill="url(#linear-gradient-3)"/>
  <path id="Trazado_8847" data-name="Trazado 8847" d="M108.414,180.584h-73.5a5.64,5.64,0,0,1-5.64-5.64v-66.32a5.64,5.64,0,0,1,5.64-5.64h96.257a5.64,5.64,0,0,1,5.64,5.64v45.044a3.286,3.286,0,0,1-.945,2.306l-22,22.33A7.646,7.646,0,0,1,108.414,180.584Z" transform="translate(-22.491 -90.919)" fill="url(#linear-gradient-4)"/>
  <path id="Trazado_8848" data-name="Trazado 8848" d="M155.765,133.244v49.65c-3.756,3.812-8.2,8.323-11.2,11.367h-75.2a4.784,4.784,0,0,1-4.783-4.783V133.244a4.784,4.784,0,0,1,4.783-4.783h81.615A4.784,4.784,0,0,1,155.765,133.244Z" transform="translate(-49.628 -110.496)" fill="url(#linear-gradient-5)"/>
  <path id="Trazado_8849" data-name="Trazado 8849" d="M136.806,394.235v4.512a5.642,5.642,0,0,1-5.64,5.64H34.909a5.642,5.642,0,0,1-5.64-5.64v-4.512Z" transform="translate(-22.491 -314.723)" fill="url(#linear-gradient-6)"/>
  <path id="Trazado_8850" data-name="Trazado 8850" d="M64.612,271.2c.015.14.037.278.063.414,0,.025.01.05.015.075q.043.2.1.4c.007.023.015.045.022.068.042.132.089.262.142.389l.015.034c.052.122.11.24.172.356l.027.052c.063.115.132.227.2.336l.049.074c.072.1.148.206.227.3l.061.073c.082.1.167.192.256.282l.057.055q.126.124.262.238l.051.044a4.761,4.761,0,0,0,3.028,1.082h75.2c2.346-2.382,5.579-5.662,8.674-8.8L127.83,243.365a5.135,5.135,0,0,0-6.943,0l-11.274,10.342L91.887,235.991a5.135,5.135,0,0,0-8.033.2l-19.27,25.5v9c0,.152.009.3.023.449C64.609,271.163,64.61,271.184,64.612,271.2Z" transform="translate(-49.628 -191.713)" fill="url(#linear-gradient-7)"/>
  <path id="Trazado_8851" data-name="Trazado 8851" d="M224.141,292.756c-3.092,3.135-6.318,6.409-8.662,8.788l-22.868-.019-35.759-.03,21.1-19.362,13.831-12.688a5.135,5.135,0,0,1,6.943,0Z" transform="translate(-120.529 -217.794)" fill="url(#linear-gradient-8)"/>
  <path id="Trazado_8852" data-name="Trazado 8852" d="M268.758,269.445a5.135,5.135,0,0,0-6.943,0l-13.831,12.688,14.654,19.392,22.868.019c2.344-2.379,5.57-5.654,8.662-8.788Z" transform="translate(-190.556 -217.793)" fill="url(#linear-gradient-9)"/>
  <path id="Trazado_8853" data-name="Trazado 8853" d="M304.695,273.654a1.953,1.953,0,0,1-2.885-.495l0,0a1.947,1.947,0,0,0-3.315,0v0a1.949,1.949,0,0,1-3.317,0v0a1.95,1.95,0,0,0-3.318,0,1.946,1.946,0,0,1-3.078.309l4.385-4.022a5.128,5.128,0,0,1,6.941,0Z" transform="translate(-221.904 -217.791)" fill="url(#linear-gradient-10)"/>
  <path id="Trazado_8854" data-name="Trazado 8854" d="M304.695,273.654a1.953,1.953,0,0,1-2.885-.495l0,0a1.947,1.947,0,0,0-3.315,0v0a1.949,1.949,0,0,1-3.317,0v0a1.95,1.95,0,0,0-3.318,0,1.946,1.946,0,0,1-3.078.309l4.385-4.022a5.128,5.128,0,0,1,6.941,0Z" transform="translate(-221.904 -217.791)" fill="url(#linear-gradient-11)"/>
  <path id="Trazado_8855" data-name="Trazado 8855" d="M97.764,244.624l-.1,0a7.317,7.317,0,0,0-13.978-3.8A2.274,2.274,0,0,0,80.832,244a4.242,4.242,0,0,0,1.485,8.216H97.764a3.8,3.8,0,0,0,0-7.592Z" transform="translate(-59.995 -193.451)" fill="#008bf2"/>
  <path id="Trazado_8856" data-name="Trazado 8856" d="M121.734,275.476,68.6,275.414a4.786,4.786,0,0,1-4.014-4.721v-9l19.271-25.5a5.136,5.136,0,0,1,8.194,0l15.007,19.86,14.655,19.392Z" transform="translate(-49.628 -191.712)" fill="url(#linear-gradient-12)"/>
  <path id="Trazado_8857" data-name="Trazado 8857" d="M146.85,241.412a1.951,1.951,0,0,1-3.067-.325v-.005a1.951,1.951,0,0,0-3.318,0,1.95,1.95,0,0,1-3.318,0,1.95,1.95,0,0,0-3.318,0,1.947,1.947,0,0,1-3.062.328l3.944-5.221a5.134,5.134,0,0,1,8.194,0Z" transform="translate(-100.485 -191.711)" fill="url(#linear-gradient-13)"/>
  <path id="Trazado_8858" data-name="Trazado 8858" d="M398.523,327.665a3.476,3.476,0,0,1-.823,1.128c-.244.244-21.706,22.03-21.706,22.03a8.085,8.085,0,0,1-5.759,2.411h0a3.384,3.384,0,0,0,3.384-3.384V333.305a5.64,5.64,0,0,1,5.64-5.64Z" transform="translate(-284.497 -263.569)" fill="url(#linear-gradient-14)"/>
  <path id="Trazado_8859" data-name="Trazado 8859" d="M271.9,179.413l-.1,0a7.317,7.317,0,0,0-13.978-3.8,2.274,2.274,0,0,0-2.858,3.17A4.242,4.242,0,0,0,256.454,187H271.9a3.8,3.8,0,0,0,0-7.592Z" transform="translate(-193.805 -143.342)" fill="#008bf2"/>
  <path id="Trazado_8860" data-name="Trazado 8860" d="M353.728,170.975,342.02,159.266a11.488,11.488,0,1,0-16.241,16.241l27.949,27.949V170.975Z" transform="translate(-247.591 -131.423)" fill="url(#linear-gradient-15)"/>
  <circle id="Elipse_640" data-name="Elipse 640" cx="11.491" cy="11.491" r="11.491" transform="translate(74.616 24.271)" fill="url(#linear-gradient-16)"/>
</svg>
